{
  "sheetsById": {
    "cubes": {
      "staticOverrides": {
        "byObject": {
          "Cube0": {
            "position": {
              "x": 0,
              "y": 0
            },
            "rotation": {
              "x": 0,
              "y": 0,
              "z": 0
            },
            "scale": {
              "x": 1,
              "y": 1,
              "z": 1
            }
          },
          "Cube1": {
            "position": {
              "x": 1,
              "y": 0,
              "z": 0
            },
            "rotation": {
              "x": 0,
              "y": 0,
              "z": 0
            },
            "scale": {
              "x": 1,
              "y": 1,
              "z": 1
            }
          },
          "Cube2": {
            "position": {
              "x": 1.5,
              "y": 0,
              "z": 0
            },
            "rotation": {
              "x": 0,
              "y": 0,
              "z": 0
            },
            "scale": {
              "x": 1,
              "y": 1,
              "z": 1
            }
          },
          "Cube3": {
            "position": {
              "x": 2,
              "z": 0
            },
            "rotation": {
              "x": 0,
              "y": 0,
              "z": 0
            },
            "scale": {
              "x": 1,
              "y": 1,
              "z": 1
            }
          },
          "Cube4": {
            "position": {
              "x": 4,
              "y": 0,
              "z": 0
            },
            "rotation": {
              "x": 0,
              "y": 0,
              "z": 0
            },
            "scale": {
              "x": 1,
              "y": 1,
              "z": 1
            }
          }
        }
      },
      "sequence": {
        "subUnitsPerUnit": 30,
        "length": 10,
        "type": "PositionalSequence",
        "tracksByObject": {
          "Cube3": {
            "trackData": {
              "CtQqrswO2n": {
                "type": "BasicKeyframedTrack",
                "__debugName": "Cube3:[\"position\",\"x\"]",
                "keyframes": [
                  {
                    "id": "mnOyXue88d",
                    "position": 0,
                    "connectedRight": true,
                    "handles": [
                      0.5,
                      1,
                      0.55,
                      0.085
                    ],
                    "type": "bezier",
                    "value": 3
                  },
                  {
                    "id": "vemCQfmVyV",
                    "position": 1.5,
                    "connectedRight": true,
                    "handles": [
                      0.68,
                      0.53,
                      0.5,
                      0
                    ],
                    "type": "bezier",
                    "value": 4.5
                  },
                  {
                    "id": "jV4Gt6RTHV",
                    "position": 3,
                    "connectedRight": true,
                    "handles": [
                      0.5,
                      1,
                      0.5,
                      0
                    ],
                    "type": "bezier",
                    "value": 4.5
                  },
                  {
                    "id": "w5XTRXSj0W",
                    "position": 4.5,
                    "connectedRight": true,
                    "handles": [
                      0.5,
                      1,
                      0.5,
                      0
                    ],
                    "type": "bezier",
                    "value": 0
                  }
                ]
              },
              "D8tNjMrh7P": {
                "type": "BasicKeyframedTrack",
                "__debugName": "Cube3:[\"position\",\"y\"]",
                "keyframes": [
                  {
                    "id": "Mb0pfBJxZ4",
                    "position": 1.5,
                    "connectedRight": true,
                    "handles": [
                      0.5,
                      1,
                      0.5,
                      0
                    ],
                    "type": "bezier",
                    "value": 0
                  },
                  {
                    "id": "gfZ53fhn3s",
                    "position": 3,
                    "connectedRight": true,
                    "handles": [
                      0.5,
                      1,
                      0.5,
                      0
                    ],
                    "type": "bezier",
                    "value": 3
                  }
                ]
              }
            },
            "trackIdByPropPath": {
              "[\"position\",\"x\"]": "CtQqrswO2n",
              "[\"position\",\"y\"]": "D8tNjMrh7P"
            }
          },
          "Cube0": {
            "trackData": {},
            "trackIdByPropPath": {}
          },
          "Cube1": {
            "trackData": {
              "UBrzEY5ah_": {
                "type": "BasicKeyframedTrack",
                "__debugName": "Cube1:[\"position\",\"x\"]",
                "keyframes": [
                  {
                    "id": "myPCLVQSPf",
                    "position": 0,
                    "connectedRight": true,
                    "handles": [
                      0.5,
                      1,
                      0.55,
                      0.085
                    ],
                    "type": "bezier",
                    "value": 1
                  },
                  {
                    "id": "PtMb4mw057",
                    "position": 1.5,
                    "connectedRight": true,
                    "handles": [
                      0.68,
                      0.53,
                      0.5,
                      0
                    ],
                    "type": "bezier",
                    "value": 1.5
                  },
                  {
                    "id": "9bK3yMb7t3",
                    "position": 3,
                    "connectedRight": true,
                    "handles": [
                      0.5,
                      1,
                      0.5,
                      0
                    ],
                    "type": "bezier",
                    "value": 1.5
                  },
                  {
                    "id": "JcSGYGlZRZ",
                    "position": 4.5,
                    "connectedRight": true,
                    "handles": [
                      0.5,
                      1,
                      0.5,
                      0
                    ],
                    "type": "bezier",
                    "value": 0
                  }
                ]
              },
              "e6ew0FMoSo": {
                "type": "BasicKeyframedTrack",
                "__debugName": "Cube1:[\"position\",\"y\"]",
                "keyframes": [
                  {
                    "id": "4vx2-qbhv0",
                    "position": 1.5,
                    "connectedRight": true,
                    "handles": [
                      0.5,
                      1,
                      0.5,
                      0
                    ],
                    "type": "bezier",
                    "value": 0
                  },
                  {
                    "id": "Wpft1rTDmu",
                    "position": 3,
                    "connectedRight": true,
                    "handles": [
                      0.5,
                      1,
                      0.5,
                      0
                    ],
                    "type": "bezier",
                    "value": 1
                  }
                ]
              }
            },
            "trackIdByPropPath": {
              "[\"position\",\"x\"]": "UBrzEY5ah_",
              "[\"position\",\"y\"]": "e6ew0FMoSo"
            }
          },
          "Cube2": {
            "trackData": {
              "KxB4W0vaCD": {
                "type": "BasicKeyframedTrack",
                "__debugName": "Cube2:[\"position\",\"x\"]",
                "keyframes": [
                  {
                    "id": "wOqQpaiwn6",
                    "position": 0,
                    "connectedRight": true,
                    "handles": [
                      0.5,
                      1,
                      0.55,
                      0.085
                    ],
                    "type": "bezier",
                    "value": 2
                  },
                  {
                    "id": "T56dtYycZh",
                    "position": 1.5,
                    "connectedRight": true,
                    "handles": [
                      0.68,
                      0.53,
                      0.5,
                      0
                    ],
                    "type": "bezier",
                    "value": 3
                  },
                  {
                    "id": "f2LZZxwkk4",
                    "position": 3,
                    "connectedRight": true,
                    "handles": [
                      0.5,
                      1,
                      0.5,
                      0
                    ],
                    "type": "bezier",
                    "value": 3
                  },
                  {
                    "id": "w-3yitJ_Xr",
                    "position": 4.5,
                    "connectedRight": true,
                    "handles": [
                      0.5,
                      1,
                      0.5,
                      0
                    ],
                    "type": "bezier",
                    "value": 0
                  }
                ]
              },
              "Dx72erniBc": {
                "type": "BasicKeyframedTrack",
                "__debugName": "Cube2:[\"position\",\"y\"]",
                "keyframes": [
                  {
                    "id": "AZbHQf5WhP",
                    "position": 1.5,
                    "connectedRight": true,
                    "handles": [
                      0.5,
                      1,
                      0.5,
                      0
                    ],
                    "type": "bezier",
                    "value": 0
                  },
                  {
                    "id": "noo_Klq7jC",
                    "position": 3,
                    "connectedRight": true,
                    "handles": [
                      0.5,
                      1,
                      0.5,
                      0
                    ],
                    "type": "bezier",
                    "value": 2
                  }
                ]
              }
            },
            "trackIdByPropPath": {
              "[\"position\",\"x\"]": "KxB4W0vaCD",
              "[\"position\",\"y\"]": "Dx72erniBc"
            }
          },
          "Cube4": {
            "trackData": {
              "sjs3uhwkJg": {
                "type": "BasicKeyframedTrack",
                "__debugName": "Cube4:[\"position\",\"x\"]",
                "keyframes": [
                  {
                    "id": "zuUCKb80b8",
                    "position": 0,
                    "connectedRight": true,
                    "handles": [
                      0.5,
                      1,
                      0.55,
                      0.085
                    ],
                    "type": "bezier",
                    "value": 4
                  },
                  {
                    "id": "nW5GlYW4Ns",
                    "position": 1.5,
                    "connectedRight": true,
                    "handles": [
                      0.68,
                      0.53,
                      0.5,
                      0
                    ],
                    "type": "bezier",
                    "value": 6
                  },
                  {
                    "id": "eKLLRAgHhD",
                    "position": 3.033,
                    "connectedRight": true,
                    "handles": [
                      0.5,
                      1,
                      0.5,
                      0
                    ],
                    "type": "bezier",
                    "value": 6
                  },
                  {
                    "id": "SdUhpCWRMp",
                    "position": 4.5,
                    "connectedRight": true,
                    "handles": [
                      0.5,
                      1,
                      0.5,
                      0
                    ],
                    "type": "bezier",
                    "value": 0
                  }
                ]
              },
              "qGgLfIddsA": {
                "type": "BasicKeyframedTrack",
                "__debugName": "Cube4:[\"position\",\"y\"]",
                "keyframes": [
                  {
                    "id": "WR9zqc3uVD",
                    "position": 1.5,
                    "connectedRight": true,
                    "handles": [
                      0.5,
                      1,
                      0.5,
                      0
                    ],
                    "type": "bezier",
                    "value": 0
                  },
                  {
                    "id": "3xofls_9OM",
                    "position": 3.033,
                    "connectedRight": true,
                    "handles": [
                      0.5,
                      1,
                      0.5,
                      0
                    ],
                    "type": "bezier",
                    "value": 4
                  }
                ]
              }
            },
            "trackIdByPropPath": {
              "[\"position\",\"x\"]": "sjs3uhwkJg",
              "[\"position\",\"y\"]": "qGgLfIddsA"
            }
          }
        }
      }
    }
  },
  "definitionVersion": "0.4.0",
  "revisionHistory": [
    "ZRi9pgBgVolpr4zt",
    "MG9K2KBfLeccKWe_",
    "-exuX_XKJe_lhvz6",
    "tOa7T1RPa_psBFCz"
  ]
}